<?xml version="1.0" encoding="UTF-8"?>
<svg width="23px" height="22px" viewBox="0 0 23 22" version="1.1" xmlns="http://www.w3.org/2000/svg" xmlns:xlink="http://www.w3.org/1999/xlink">
    <!-- Generator: Sketch 49.3 (51167) - http://www.bohemiancoding.com/sketch -->
    <title>我的收藏 (1)</title>
    <desc>Created with Sketch.</desc>
    <defs></defs>
    <g id="Page-1" stroke="none" stroke-width="1" fill-rule="evenodd">
        <g id="我的" transform="translate(-299.000000, -196.000000)">
            <path d="M321.90331,204.166925 C321.679259,203.532554 321.110864,203.074376 320.420206,202.972458 L314.675024,202.132218 L312.178715,197.025056 C311.876579,196.403279 311.218343,196 310.49959,196 C309.783582,196 309.126735,196.403279 308.824598,197.023667 L306.328193,202.132218 L300.577586,202.975365 C299.889705,203.077283 299.322666,203.533943 299.097129,204.171091 C298.874466,204.81544 299.041003,205.51317 299.531313,205.995052 L303.749762,210.139678 L302.769594,215.889058 C302.650141,216.569866 302.941685,217.243603 303.535431,217.648271 C303.846642,217.858436 304.214851,217.969461 304.599852,217.969461 C304.911063,217.969461 305.218851,217.894895 305.494992,217.750834 L310.498072,215.092316 L315.520949,217.757907 C315.789371,217.896284 316.091508,217.965165 316.394258,217.965165 C316.77293,217.965165 317.153022,217.858436 317.473437,217.646882 C318.058754,217.246509 318.348878,216.572644 318.230813,215.891835 L317.252163,210.142455 L321.47326,205.992275 C321.959566,205.510264 322.124681,204.814052 321.90331,204.166925 Z M320.46448,204.966444 L315.707895,209.642942 L315.833645,210.384171 L316.81307,216.137814 C316.842586,216.307095 316.730173,216.411791 316.68099,216.446248 C316.603648,216.497432 316.498953,216.526206 316.394258,216.526206 C316.315656,216.526206 316.239734,216.510188 316.19546,216.486969 L311.172681,213.82125 L310.497426,213.46302 L309.822947,213.82125 L304.829587,216.474989 C304.76006,216.511577 304.680715,216.530501 304.599852,216.530501 C304.501455,216.530501 304.413681,216.50528 304.346188,216.459488 C304.273883,216.410402 304.157982,216.303575 304.188112,216.130741 L305.294805,209.640164 L304.758058,209.113105 L300.540222,204.968608 C300.445506,204.875861 300.41599,204.75996 300.453838,204.65097 C300.500986,204.516856 300.626026,204.422624 300.786201,204.398791 L306.536969,203.555644 L307.288016,203.446137 L307.621057,202.763811 L310.11798,197.653904 C310.179918,197.527508 310.336606,197.43896 310.49959,197.43896 C310.664706,197.43896 310.82275,197.527508 310.885948,197.656681 L313.716041,203.446137 L314.467119,203.555644 L320.210041,204.396014 C320.371637,204.419847 320.500293,204.515467 320.541661,204.632789 C320.583804,204.756408 320.555063,204.876636 320.46448,204.966444 Z" id="我的收藏-(1)"></path>
        </g>
    </g>
</svg>