<?xml version="1.0" encoding="utf-8"?>
<!-- Generator: Adobe Illustrator 22.0.0, SVG Export Plug-In . SVG Version: 6.00 Build 0)  -->
<svg version="1.1" id="图层_1" xmlns="http://www.w3.org/2000/svg" xmlns:xlink="http://www.w3.org/1999/xlink" x="0px" y="0px"
	 viewBox="0 0 32 32" style="enable-background:new 0 0 32 32;" xml:space="preserve">
<g>
	<path d="M15.406,30.407c-7.72,0-14-6.28-14-14c0-7.72,6.28-14,14-14c7.72,0,14,6.28,14,14
		C29.406,24.126,23.126,30.407,15.406,30.407L15.406,30.407z M15.406,3.728c-6.991,0-12.678,5.687-12.678,12.678
		s5.687,12.678,12.678,12.678s12.678-5.687,12.678-12.678S22.397,3.728,15.406,3.728L15.406,3.728z M15.406,3.728"/>
	<path d="M15.406,22.867c-3.562,0-6.461-2.898-6.461-6.461c0-3.562,2.898-6.461,6.461-6.461s6.461,2.898,6.461,6.461
		C21.867,19.969,18.968,22.867,15.406,22.867L15.406,22.867z M15.406,11.268c-2.833,0-5.139,2.305-5.139,5.139
		c0,2.833,2.305,5.139,5.139,5.139c2.833,0,5.139-2.305,5.139-5.139C20.545,13.573,18.239,11.268,15.406,11.268L15.406,11.268z
		 M15.406,11.268"/>
	<path d="M27.569,11.13c0,0.08-0.026,0.158-0.125,0.158H15.498c-0.1,0-0.171-0.078-0.171-0.158v-1.015
		c0-0.08,0.071-0.163,0.171-0.163h11.946c0.1,0,0.125,0.083,0.125,0.163V11.13z M27.569,11.13"/>
	<path d="M19.004,29.525c-0.023,0.103-0.105,0.171-0.183,0.153l-0.99-0.225c-0.078-0.018-0.122-0.115-0.099-0.218l2.784-12.247
		c0.023-0.103,0.105-0.171,0.184-0.153l0.99,0.225c0.078,0.018,0.122,0.115,0.099,0.218L19.004,29.525z M19.004,29.525"/>
	<path d="M10.362,17.408c0.025,0.094-0.018,0.186-0.095,0.207l-0.981,0.26c-0.077,0.021-0.16-0.039-0.185-0.132L6.126,6.541
		C6.101,6.447,6.144,6.354,6.221,6.334l0.981-0.261c0.077-0.021,0.16,0.039,0.185,0.133L10.362,17.408z M10.362,17.408"/>
</g>
</svg>
